^C:\USERS\822\DESKTOP\GAME-ENGINE_PG1\JUEGO\STDAFX.CPP
/c /I"C:\USERS\822\DESKTOP\GAME-ENGINE_PG1\ENGINE" /I"C:\USERS\822\DESKTOP\GAME-ENGINE_PG1\DX\INCLUDE" /ZI /nologo /W3 /WX- /sdl /Od /Oy- /D WIN32 /D _DEBUG /D _WINDOWS /D _UNICODE /D UNICODE /Gm /EHsc /RTC1 /MDd /GS /fp:precise /Zc:wchar_t /Zc:forScope /Zc:inline /Yc"stdafx.h" /Fp"DEBUG\JUEGO.PCH" /Fo"DEBUG\\" /Fd"DEBUG\VC140.PDB" /Gd /TP /analyze- C:\USERS\822\DESKTOP\GAME-ENGINE_PG1\JUEGO\STDAFX.CPP
^C:\USERS\822\DESKTOP\GAME-ENGINE_PG1\JUEGO\JUEGO.CPP
/c /I"C:\USERS\822\DESKTOP\GAME-ENGINE_PG1\ENGINE" /I"C:\USERS\822\DESKTOP\GAME-ENGINE_PG1\DX\INCLUDE" /ZI /nologo /W3 /WX- /sdl /Od /Oy- /D WIN32 /D _DEBUG /D _WINDOWS /D _UNICODE /D UNICODE /Gm /EHsc /RTC1 /MDd /GS /fp:precise /Zc:wchar_t /Zc:forScope /Zc:inline /Yu"stdafx.h" /Fp"DEBUG\JUEGO.PCH" /Fo"DEBUG\\" /Fd"DEBUG\VC140.PDB" /Gd /TP /analyze- C:\USERS\822\DESKTOP\GAME-ENGINE_PG1\JUEGO\JUEGO.CPP
